{
  "name": "staging",
  "description": "The staging environment.",
  "cookbook_versions": {

  },
  "json_class": "Chef::Environment",
  "chef_type": "environment",
  "default_attributes": {
    "aws": {
      "s3": {
        "env_file": ".env-staging"
      }
    }
  },
  "override_attributes": {
    "php-server": {
      "domain": "www.volutus.wvu.edu",
      "apache_config_git": {
        "branch": "www2-staging"
      },
      "deploy_user_databag": "users_staging"
    },
    "aws": {
      "efs": {
        "dns": "fs-eb948da2.efs.us-east-1.amazonaws.com"
      }
    }
  }
}
