<?xml version="1.0" encoding="utf-8"?>
<!-- Generator: Adobe Illustrator 23.1.1, SVG Export Plug-In . SVG Version: 6.00 Build 0)  -->
<svg version="1.1" id="Capa_1" xmlns="http://www.w3.org/2000/svg" xmlns:xlink="http://www.w3.org/1999/xlink" x="0px" y="0px"
	 viewBox="0 0 490.7 490.7" style="enable-background:new 0 0 490.7 490.7;" xml:space="preserve">
<style type="text/css">
	.st0{fill:#FFFFFF;}
</style>
<path class="st0" d="M245.3,0C109.8,0,0,109.8,0,245.3s109.8,245.3,245.3,245.3s245.3-109.8,245.3-245.3
	C490.5,109.9,380.8,0.2,245.3,0z M408.4,267.9L290.1,386.1c-18.2,15.9-45.4,16-63.6,0.1c-20.2-17.5-22.3-48.1-4.8-68.3l19.2-19.2
	H117.3c-29.5,0-53.3-23.9-53.3-53.3c0-29.5,23.9-53.3,53.3-53.3h123.6l-19.2-19.2c0,0,0,0,0,0c-18.9-18.9-18.9-49.5,0-68.4
	c19.1-18.3,49.3-18.3,68.4,0l118.3,118.1C420.9,235.1,420.9,255.4,408.4,267.9z"/>
</svg>
